SingleCycleCPU/top.vcd
$version Generated by VerilatedVcd $end
$timescale 1ps $end

 $scope module TOP $end
  $var wire 32 V a0 [31:0] $end
  $var wire  1 T clk $end
  $var wire  1 U rst $end
  $scope module top $end
   $var wire  1 I ALUctrl $end
   $var wire  1 H ALUsrc $end
   $var wire  1 O EQ $end
   $var wire 32 C ImmOp [31:0] $end
   $var wire  1 F ImmSrc $end
   $var wire 32 E Instr [31:0] $end
   $var wire 32 D PC [31:0] $end
   $var wire  1 P PCsrc $end
   $var wire  1 G RegWrite $end
   $var wire 32 V a0 [31:0] $end
   $var wire  1 T clk $end
   $var wire  1 U rst $end
   $scope module ControlUnit $end
    $var wire  1 I ALUctrl $end
    $var wire  1 H ALUsrc $end
    $var wire  1 O EQ $end
    $var wire  1 F ImmSrc $end
    $var wire 32 E Instr [31:0] $end
    $var wire  1 P PCsrc $end
    $var wire  1 G RegWrite $end
   $upscope $end
   $scope module DataPath $end
    $var wire  1 I ALUctrl $end
    $var wire 32 Q ALUop1 [31:0] $end
    $var wire 32 R ALUop2 [31:0] $end
    $var wire 32 S ALUout [31:0] $end
    $var wire  1 H ALUsrc $end
    $var wire 32 Y A_WIDTH [31:0] $end
    $var wire 32 Z D_WIDTH [31:0] $end
    $var wire  1 O EQ $end
    $var wire 32 C ImmOp [31:0] $end
    $var wire  1 G RegWrite $end
    $var wire 32 V a0 [31:0] $end
    $var wire  1 T clk $end
    $var wire  5 L rd [4:0] $end
    $var wire 32 W regOp2 [31:0] $end
    $var wire  5 J rs1 [4:0] $end
    $var wire  5 K rs2 [4:0] $end
    $scope module ALU $end
     $var wire  1 I ALUctrl $end
     $var wire 32 Q ALUop1 [31:0] $end
     $var wire 32 R ALUop2 [31:0] $end
     $var wire 32 S ALUout [31:0] $end
     $var wire 32 Z DATA_WIDTH [31:0] $end
     $var wire  1 O EQ $end
    $upscope $end
    $scope module RegFile $end
     $var wire  5 J AD1 [4:0] $end
     $var wire  5 K AD2 [4:0] $end
     $var wire  5 L AD3 [4:0] $end
     $var wire 32 Y ADDRESS_WIDTH [31:0] $end
     $var wire 32 Z DATA_WIDTH [31:0] $end
     $var wire 32 Q RD1 [31:0] $end
     $var wire 32 W RD2 [31:0] $end
     $var wire 32 S WD3 [31:0] $end
     $var wire  1 G WE3 $end
     $var wire 32 V a0 [31:0] $end
     $var wire  1 T clk $end
     $var wire 32 # reg_file[0] [31:0] $end
     $var wire 32 - reg_file[10] [31:0] $end
     $var wire 32 . reg_file[11] [31:0] $end
     $var wire 32 / reg_file[12] [31:0] $end
     $var wire 32 0 reg_file[13] [31:0] $end
     $var wire 32 1 reg_file[14] [31:0] $end
     $var wire 32 2 reg_file[15] [31:0] $end
     $var wire 32 3 reg_file[16] [31:0] $end
     $var wire 32 4 reg_file[17] [31:0] $end
     $var wire 32 5 reg_file[18] [31:0] $end
     $var wire 32 6 reg_file[19] [31:0] $end
     $var wire 32 $ reg_file[1] [31:0] $end
     $var wire 32 7 reg_file[20] [31:0] $end
     $var wire 32 8 reg_file[21] [31:0] $end
     $var wire 32 9 reg_file[22] [31:0] $end
     $var wire 32 : reg_file[23] [31:0] $end
     $var wire 32 ; reg_file[24] [31:0] $end
     $var wire 32 < reg_file[25] [31:0] $end
     $var wire 32 = reg_file[26] [31:0] $end
     $var wire 32 > reg_file[27] [31:0] $end
     $var wire 32 ? reg_file[28] [31:0] $end
     $var wire 32 @ reg_file[29] [31:0] $end
     $var wire 32 % reg_file[2] [31:0] $end
     $var wire 32 A reg_file[30] [31:0] $end
     $var wire 32 B reg_file[31] [31:0] $end
     $var wire 32 & reg_file[3] [31:0] $end
     $var wire 32 ' reg_file[4] [31:0] $end
     $var wire 32 ( reg_file[5] [31:0] $end
     $var wire 32 ) reg_file[6] [31:0] $end
     $var wire 32 * reg_file[7] [31:0] $end
     $var wire 32 + reg_file[8] [31:0] $end
     $var wire 32 , reg_file[9] [31:0] $end
    $upscope $end
    $scope module regMux $end
     $var wire 32 Z DATA_WIDTH [31:0] $end
     $var wire 32 W in0 [31:0] $end
     $var wire 32 C in1 [31:0] $end
     $var wire 32 R out [31:0] $end
     $var wire  1 H sel $end
    $upscope $end
   $upscope $end
   $scope module InstrMem $end
    $var wire 32 D A [31:0] $end
    $var wire 32 [ MEMSIZE [31:0] $end
    $var wire 32 E RD [31:0] $end
   $upscope $end
   $scope module PCtop $end
    $var wire 32 C ImmOp [31:0] $end
    $var wire 32 D PC [31:0] $end
    $var wire  1 P PCsrc $end
    $var wire  1 T clk $end
    $var wire 32 X next_PC [31:0] $end
    $var wire  1 U rst $end
    $scope module MuxReg $end
     $var wire 32 Z DATA_WIDTH [31:0] $end
     $var wire 32 M in0 [31:0] $end
     $var wire 32 N in1 [31:0] $end
     $var wire 32 X out [31:0] $end
     $var wire  1 P sel $end
    $upscope $end
    $scope module PCreg $end
     $var wire 32 D PC [31:0] $end
     $var wire  1 T clk $end
     $var wire 32 X next_PC [31:0] $end
     $var wire 32 D register [31:0] $end
     $var wire  1 U rst $end
    $upscope $end
   $upscope $end
   $scope module SignExtend $end
    $var wire 32 C ImmOp [31:0] $end
    $var wire  1 F ImmSrc $end
    $var wire 32 E Instr [31:0] $end
   $upscope $end
  $upscope $end
 $upscope $end
$enddefinitions $end


#0
b00000000000000000000000000000000 #
b00000000000000000000000000000000 $
b00000000000000000000000000000000 %
b00000000000000000000000000000000 &
b00000000000000000000000000000000 '
b00000000000000000000000000000000 (
b00000000000000000000000000000000 )
b00000000000000000000000000000000 *
b00000000000000000000000000000000 +
b00000000000000000000000000000000 ,
b00000000000000000000000000000000 -
b00000000000000000000000000000000 .
b00000000000000000000000000000000 /
b00000000000000000000000000000000 0
b00000000000000000000000000000000 1
b00000000000000000000000000000000 2
b00000000000000000000000000000000 3
b00000000000000000000000000000000 4
b00000000000000000000000000000000 5
b00000000000000000000000000000000 6
b00000000000000000000000000000000 7
b00000000000000000000000000000000 8
b00000000000000000000000000000000 9
b00000000000000000000000000000000 :
b00000000000000000000000000000000 ;
b00000000000000000000000000000000 <
b00000000000000000000000000000000 =
b00000000000000000000000000000000 >
b00000000000000000000000000000000 ?
b00000000000000000000000000000000 @
b00000000000000000000000000000000 A
b00000000000000000000000000000000 B
b00000000000000000000000000000000 C
b00000000000000000000000000000000 D
b00000000000000000000000000000000 E
0F
0G
0H
0I
b00000 J
b00000 K
b00000 L
b00000000000000000000000000000100 M
b00000000000000000000000000000000 N
0O
0P
b00000000000000000000000000000000 Q
b00000000000000000000000000000000 R
b00000000000000000000000000000000 S
1T
1U
b00000000000000000000000000000000 V
b00000000000000000000000000000000 W
b00000000000000000000000000000100 X
b00000000000000000000000000000101 Y
b00000000000000000000000000100000 Z
b00000000000000000000000001100100 [
#1
1G
1H
0T
#2
1T
#3
0T
#4
1T
#5
0T
#6
1T
0U
#7
0T
#8
b00000000000000000000000000000100 D
b00000000000000000000000000001000 M
b00000000000000000000000000000100 N
1T
b00000000000000000000000000001000 X
#9
0T
#10
b00000000000000000000000000001000 D
b00000000000000000000000000001100 M
b00000000000000000000000000001000 N
1T
b00000000000000000000000000001100 X
#11
0T
#12
b00000000000000000000000000001100 D
b00000000000000000000000000010000 M
b00000000000000000000000000001100 N
1T
b00000000000000000000000000010000 X
#13
0T
#14
b00000000000000000000000000010000 D
b00000000000000000000000000010100 M
b00000000000000000000000000010000 N
1T
b00000000000000000000000000010100 X
#15
0T
#16
b00000000000000000000000000010100 D
b00000000000000000000000000011000 M
b00000000000000000000000000010100 N
1T
b00000000000000000000000000011000 X
#17
0T
#18
b00000000000000000000000000011000 D
b00000000000000000000000000011100 M
b00000000000000000000000000011000 N
1T
b00000000000000000000000000011100 X
#19
0T
#20
b00000000000000000000000000011100 D
b00000000000000000000000000100000 M
b00000000000000000000000000011100 N
1T
b00000000000000000000000000100000 X
#21
0T
#22
b00000000000000000000000000100000 D
b00000000000000000000000000100100 M
b00000000000000000000000000100000 N
1T
b00000000000000000000000000100100 X
#23
0T
#24
b00000000000000000000000000100100 D
b00000000000000000000000000101000 M
b00000000000000000000000000100100 N
1T
b00000000000000000000000000101000 X
#25
0T
#26
b00000000000000000000000000101000 D
b00000000000000000000000000101100 M
b00000000000000000000000000101000 N
1T
b00000000000000000000000000101100 X
#27
0T
#28
b00000000000000000000000000101100 D
b00000000000000000000000000110000 M
b00000000000000000000000000101100 N
1T
b00000000000000000000000000110000 X
#29
0T
#30
b00000000000000000000000000110000 D
b00000000000000000000000000110100 M
b00000000000000000000000000110000 N
1T
b00000000000000000000000000110100 X
#31
0T
#32
b00000000000000000000000000110100 D
b00000000000000000000000000111000 M
b00000000000000000000000000110100 N
1T
b00000000000000000000000000111000 X
#33
0T
#34
b00000000000000000000000000111000 D
b00000000000000000000000000111100 M
b00000000000000000000000000111000 N
1T
b00000000000000000000000000111100 X
#35
0T
#36
b00000000000000000000000000111100 D
b00000000000000000000000001000000 M
b00000000000000000000000000111100 N
1T
b00000000000000000000000001000000 X
#37
0T
#38
b00000000000000000000000001000000 D
b00000000000000000000000001000100 M
b00000000000000000000000001000000 N
1T
b00000000000000000000000001000100 X
#39
0T
#40
b00000000000000000000000001000100 D
b00000000000000000000000001001000 M
b00000000000000000000000001000100 N
1T
b00000000000000000000000001001000 X
#41
0T
#42
b00000000000000000000000001001000 D
b00000000000000000000000001001100 M
b00000000000000000000000001001000 N
1T
b00000000000000000000000001001100 X
#43
0T
#44
b00000000000000000000000001001100 D
b00000000000000000000000001010000 M
b00000000000000000000000001001100 N
1T
b00000000000000000000000001010000 X
#45
0T
#46
b00000000000000000000000001010000 D
b00000000000000000000000001010100 M
b00000000000000000000000001010000 N
1T
b00000000000000000000000001010100 X
#47
0T
#48
b00000000000000000000000001010100 D
b00000000000000000000000001011000 M
b00000000000000000000000001010100 N
1T
b00000000000000000000000001011000 X
#49
0T
#50
b00000000000000000000000001011000 D
b00000000000000000000000001011100 M
b00000000000000000000000001011000 N
1T
b00000000000000000000000001011100 X
#51
0T
#52
b00000000000000000000000001011100 D
b00000000000000000000000001100000 M
b00000000000000000000000001011100 N
1T
b00000000000000000000000001100000 X
#53
0T
#54
b00000000000000000000000001100000 D
b00000000000000000000000001100100 M
b00000000000000000000000001100000 N
1T
b00000000000000000000000001100100 X
#55
0T
#56
b00000000000000000000000001100100 D
b00000000000000000000000001101000 M
b00000000000000000000000001100100 N
1T
b00000000000000000000000001101000 X
#57
0T
#58
b00000000000000000000000001101000 D
b00000000000000000000000001101100 M
b00000000000000000000000001101000 N
1T
b00000000000000000000000001101100 X
#59
0T
#60
b00000000000000000000000001101100 D
b00000000000000000000000001110000 M
b00000000000000000000000001101100 N
1T
b00000000000000000000000001110000 X
#61
0T
#62
b00000000000000000000000001110000 D
b00000000000000000000000001110100 M
b00000000000000000000000001110000 N
1T
b00000000000000000000000001110100 X
#63
0T
#64
b00000000000000000000000001110100 D
b00000000000000000000000001111000 M
b00000000000000000000000001110100 N
1T
b00000000000000000000000001111000 X
#65
0T
#66
b00000000000000000000000001111000 D
b00000000000000000000000001111100 M
b00000000000000000000000001111000 N
1T
b00000000000000000000000001111100 X
#67
0T
#68
b00000000000000000000000001111100 D
b00000000000000000000000010000000 M
b00000000000000000000000001111100 N
1T
b00000000000000000000000010000000 X
#69
0T
#70
b00000000000000000000000010000000 D
b00000000000000000000000010000100 M
b00000000000000000000000010000000 N
1T
b00000000000000000000000010000100 X
#71
0T
#72
b00000000000000000000000010000100 D
b00000000000000000000000010001000 M
b00000000000000000000000010000100 N
1T
b00000000000000000000000010001000 X
#73
0T
#74
b00000000000000000000000010001000 D
b00000000000000000000000010001100 M
b00000000000000000000000010001000 N
1T
b00000000000000000000000010001100 X
#75
0T
#76
b00000000000000000000000010001100 D
b00000000000000000000000010010000 M
b00000000000000000000000010001100 N
1T
b00000000000000000000000010010000 X
#77
0T
#78
b00000000000000000000000010010000 D
b00000000000000000000000010010100 M
b00000000000000000000000010010000 N
1T
b00000000000000000000000010010100 X
#79
0T
#80
b00000000000000000000000010010100 D
b00000000000000000000000010011000 M
b00000000000000000000000010010100 N
1T
b00000000000000000000000010011000 X
#81
0T
#82
b00000000000000000000000010011000 D
b00000000000000000000000010011100 M
b00000000000000000000000010011000 N
1T
b00000000000000000000000010011100 X
#83
0T
#84
b00000000000000000000000010011100 D
b00000000000000000000000010100000 M
b00000000000000000000000010011100 N
1T
b00000000000000000000000010100000 X
#85
0T
#86
b00000000000000000000000010100000 D
b00000000000000000000000010100100 M
b00000000000000000000000010100000 N
1T
b00000000000000000000000010100100 X
#87
0T
#88
b00000000000000000000000010100100 D
b00000000000000000000000010101000 M
b00000000000000000000000010100100 N
1T
b00000000000000000000000010101000 X
#89
0T
#90
b00000000000000000000000010101000 D
b00000000000000000000000010101100 M
b00000000000000000000000010101000 N
1T
b00000000000000000000000010101100 X
#91
0T
#92
b00000000000000000000000010101100 D
b00000000000000000000000010110000 M
b00000000000000000000000010101100 N
1T
b00000000000000000000000010110000 X
#93
0T
#94
b00000000000000000000000010110000 D
b00000000000000000000000010110100 M
b00000000000000000000000010110000 N
1T
b00000000000000000000000010110100 X
#95
0T
#96
b00000000000000000000000010110100 D
b00000000000000000000000010111000 M
b00000000000000000000000010110100 N
1T
b00000000000000000000000010111000 X
#97
0T
#98
b00000000000000000000000010111000 D
b00000000000000000000000010111100 M
b00000000000000000000000010111000 N
1T
b00000000000000000000000010111100 X
#99
0T
#100
b00000000000000000000000010111100 D
b00000000000000000000000011000000 M
b00000000000000000000000010111100 N
1T
b00000000000000000000000011000000 X
#101
0T
#102
b00000000000000000000000011000000 D
b00000000000000000000000011000100 M
b00000000000000000000000011000000 N
1T
b00000000000000000000000011000100 X
#103
0T
#104
b00000000000000000000000011000100 D
b00000000000000000000000011001000 M
b00000000000000000000000011000100 N
1T
b00000000000000000000000011001000 X
#105
0T
#106
b00000000000000000000000011001000 D
b00000000000000000000000011001100 M
b00000000000000000000000011001000 N
1T
b00000000000000000000000011001100 X
#107
0T
#108
b00000000000000000000000011001100 D
b00000000000000000000000011010000 M
b00000000000000000000000011001100 N
1T
b00000000000000000000000011010000 X
#109
0T
#110
b00000000000000000000000011010000 D
b00000000000000000000000011010100 M
b00000000000000000000000011010000 N
1T
b00000000000000000000000011010100 X
#111
0T
#112
b00000000000000000000000011010100 D
b00000000000000000000000011011000 M
b00000000000000000000000011010100 N
1T
b00000000000000000000000011011000 X
#113
0T
#114
b00000000000000000000000011011000 D
b00000000000000000000000011011100 M
b00000000000000000000000011011000 N
1T
b00000000000000000000000011011100 X
#115
0T
#116
b00000000000000000000000011011100 D
b00000000000000000000000011100000 M
b00000000000000000000000011011100 N
1T
b00000000000000000000000011100000 X
#117
0T
#118
b00000000000000000000000011100000 D
b00000000000000000000000011100100 M
b00000000000000000000000011100000 N
1T
b00000000000000000000000011100100 X
#119
0T
#120
b00000000000000000000000011100100 D
b00000000000000000000000011101000 M
b00000000000000000000000011100100 N
1T
b00000000000000000000000011101000 X
#121
0T
#122
b00000000000000000000000011101000 D
b00000000000000000000000011101100 M
b00000000000000000000000011101000 N
1T
b00000000000000000000000011101100 X
#123
0T
#124
b00000000000000000000000011101100 D
b00000000000000000000000011110000 M
b00000000000000000000000011101100 N
1T
b00000000000000000000000011110000 X
#125
0T
#126
b00000000000000000000000011110000 D
b00000000000000000000000011110100 M
b00000000000000000000000011110000 N
1T
b00000000000000000000000011110100 X
#127
0T
#128
b00000000000000000000000011110100 D
b00000000000000000000000011111000 M
b00000000000000000000000011110100 N
1T
b00000000000000000000000011111000 X
#129
0T
#130
b00000000000000000000000011111000 D
b00000000000000000000000011111100 M
b00000000000000000000000011111000 N
1T
b00000000000000000000000011111100 X
#131
0T
#132
b00000000000000000000000011111100 D
b00000000000000000000000100000000 M
b00000000000000000000000011111100 N
1T
b00000000000000000000000100000000 X
#133
0T
#134
b00000000000000000000000100000000 D
b00000000000000000000000100000100 M
b00000000000000000000000100000000 N
1T
b00000000000000000000000100000100 X
#135
0T
#136
b00000000000000000000000100000100 D
b00000000000000000000000100001000 M
b00000000000000000000000100000100 N
1T
b00000000000000000000000100001000 X
#137
0T
#138
b00000000000000000000000100001000 D
b00000000000000000000000100001100 M
b00000000000000000000000100001000 N
1T
b00000000000000000000000100001100 X
#139
0T
#140
b00000000000000000000000100001100 D
b00000000000000000000000100010000 M
b00000000000000000000000100001100 N
1T
b00000000000000000000000100010000 X
#141
0T
#142
b00000000000000000000000100010000 D
b00000000000000000000000100010100 M
b00000000000000000000000100010000 N
1T
b00000000000000000000000100010100 X
#143
0T
#144
b00000000000000000000000100010100 D
b00000000000000000000000100011000 M
b00000000000000000000000100010100 N
1T
b00000000000000000000000100011000 X
#145
0T
#146
b00000000000000000000000100011000 D
b00000000000000000000000100011100 M
b00000000000000000000000100011000 N
1T
b00000000000000000000000100011100 X
#147
0T
#148
b00000000000000000000000100011100 D
b00000000000000000000000100100000 M
b00000000000000000000000100011100 N
1T
b00000000000000000000000100100000 X
#149
0T
#150
b00000000000000000000000100100000 D
b00000000000000000000000100100100 M
b00000000000000000000000100100000 N
1T
b00000000000000000000000100100100 X
#151
0T
#152
b00000000000000000000000100100100 D
b00000000000000000000000100101000 M
b00000000000000000000000100100100 N
1T
b00000000000000000000000100101000 X
#153
0T
#154
b00000000000000000000000100101000 D
b00000000000000000000000100101100 M
b00000000000000000000000100101000 N
1T
b00000000000000000000000100101100 X
#155
0T
#156
b00000000000000000000000100101100 D
b00000000000000000000000100110000 M
b00000000000000000000000100101100 N
1T
b00000000000000000000000100110000 X
#157
0T
#158
b00000000000000000000000100110000 D
b00000000000000000000000100110100 M
b00000000000000000000000100110000 N
1T
b00000000000000000000000100110100 X
#159
0T
#160
b00000000000000000000000100110100 D
b00000000000000000000000100111000 M
b00000000000000000000000100110100 N
1T
b00000000000000000000000100111000 X
#161
0T
#162
b00000000000000000000000100111000 D
b00000000000000000000000100111100 M
b00000000000000000000000100111000 N
1T
b00000000000000000000000100111100 X
#163
0T
#164
b00000000000000000000000100111100 D
b00000000000000000000000101000000 M
b00000000000000000000000100111100 N
1T
b00000000000000000000000101000000 X
#165
0T
#166
b00000000000000000000000101000000 D
b00000000000000000000000101000100 M
b00000000000000000000000101000000 N
1T
b00000000000000000000000101000100 X
#167
0T
#168
b00000000000000000000000101000100 D
b00000000000000000000000101001000 M
b00000000000000000000000101000100 N
1T
b00000000000000000000000101001000 X
#169
0T
#170
b00000000000000000000000101001000 D
b00000000000000000000000101001100 M
b00000000000000000000000101001000 N
1T
b00000000000000000000000101001100 X
#171
0T
#172
b00000000000000000000000101001100 D
b00000000000000000000000101010000 M
b00000000000000000000000101001100 N
1T
b00000000000000000000000101010000 X
#173
0T
#174
b00000000000000000000000101010000 D
b00000000000000000000000101010100 M
b00000000000000000000000101010000 N
1T
b00000000000000000000000101010100 X
#175
0T
#176
b00000000000000000000000101010100 D
b00000000000000000000000101011000 M
b00000000000000000000000101010100 N
1T
b00000000000000000000000101011000 X
#177
0T
#178
b00000000000000000000000101011000 D
b00000000000000000000000101011100 M
b00000000000000000000000101011000 N
1T
b00000000000000000000000101011100 X
#179
0T
#180
b00000000000000000000000101011100 D
b00000000000000000000000101100000 M
b00000000000000000000000101011100 N
1T
b00000000000000000000000101100000 X
#181
0T
#182
b00000000000000000000000101100000 D
b00000000000000000000000101100100 M
b00000000000000000000000101100000 N
1T
b00000000000000000000000101100100 X
#183
0T
#184
b00000000000000000000000101100100 D
b00000000000000000000000101101000 M
b00000000000000000000000101100100 N
1T
b00000000000000000000000101101000 X
#185
0T
#186
b00000000000000000000000101101000 D
b00000000000000000000000101101100 M
b00000000000000000000000101101000 N
1T
b00000000000000000000000101101100 X
#187
0T
#188
b00000000000000000000000101101100 D
b00000000000000000000000101110000 M
b00000000000000000000000101101100 N
1T
b00000000000000000000000101110000 X
#189
0T
#190
b00000000000000000000000101110000 D
b00000000000000000000000101110100 M
b00000000000000000000000101110000 N
1T
b00000000000000000000000101110100 X
#191
0T
#192
b00000000000000000000000101110100 D
b00000000000000000000000101111000 M
b00000000000000000000000101110100 N
1T
b00000000000000000000000101111000 X
#193
0T
#194
b00000000000000000000000101111000 D
b00000000000000000000000101111100 M
b00000000000000000000000101111000 N
1T
b00000000000000000000000101111100 X
#195
0T
#196
b00000000000000000000000101111100 D
b00000000000000000000000110000000 M
b00000000000000000000000101111100 N
1T
b00000000000000000000000110000000 X
#197
0T
#198
b00000000000000000000000110000000 D
b00000000000000000000000110000100 M
b00000000000000000000000110000000 N
1T
b00000000000000000000000110000100 X
#199
0T
#200
b00000000000000000000000110000100 D
b00000000000000000000000110001000 M
b00000000000000000000000110000100 N
1T
b00000000000000000000000110001000 X
#201
0T
#202
b00000000000000000000000110001000 D
b00000000000000000000000110001100 M
b00000000000000000000000110001000 N
1T
b00000000000000000000000110001100 X
#203
0T
#204
b00000000000000000000000110001100 D
b00000000000000000000000110010000 M
b00000000000000000000000110001100 N
1T
b00000000000000000000000110010000 X
#205
0T
#206
b00000000000000000000000110010000 D
b00000000000000000000000110010100 M
b00000000000000000000000110010000 N
1T
b00000000000000000000000110010100 X
#207
0T
#208
b00000000000000000000000110010100 D
b00000000000000000000000110011000 M
b00000000000000000000000110010100 N
1T
b00000000000000000000000110011000 X
#209
0T
#210
b00000000000000000000000110011000 D
b00000000000000000000000110011100 M
b00000000000000000000000110011000 N
1T
b00000000000000000000000110011100 X
#211
0T
#212
b00000000000000000000000110011100 D
b00000000000000000000000110100000 M
b00000000000000000000000110011100 N
1T
b00000000000000000000000110100000 X
#213
0T
#214
b00000000000000000000000110100000 D
b00000000000000000000000110100100 M
b00000000000000000000000110100000 N
1T
b00000000000000000000000110100100 X
#215
0T
#216
b00000000000000000000000110100100 D
b00000000000000000000000110101000 M
b00000000000000000000000110100100 N
1T
b00000000000000000000000110101000 X
#217
0T
#218
b00000000000000000000000110101000 D
b00000000000000000000000110101100 M
b00000000000000000000000110101000 N
1T
b00000000000000000000000110101100 X
#219
0T
#220
b00000000000000000000000110101100 D
b00000000000000000000000110110000 M
b00000000000000000000000110101100 N
1T
b00000000000000000000000110110000 X
#221
0T
#222
b00000000000000000000000110110000 D
b00000000000000000000000110110100 M
b00000000000000000000000110110000 N
1T
b00000000000000000000000110110100 X
#223
0T
#224
b00000000000000000000000110110100 D
b00000000000000000000000110111000 M
b00000000000000000000000110110100 N
1T
b00000000000000000000000110111000 X
#225
0T
#226
b00000000000000000000000110111000 D
b00000000000000000000000110111100 M
b00000000000000000000000110111000 N
1T
b00000000000000000000000110111100 X
#227
0T
#228
b00000000000000000000000110111100 D
b00000000000000000000000111000000 M
b00000000000000000000000110111100 N
1T
b00000000000000000000000111000000 X
#229
0T
#230
b00000000000000000000000111000000 D
b00000000000000000000000111000100 M
b00000000000000000000000111000000 N
1T
b00000000000000000000000111000100 X
#231
0T
#232
b00000000000000000000000111000100 D
b00000000000000000000000111001000 M
b00000000000000000000000111000100 N
1T
b00000000000000000000000111001000 X
#233
0T
#234
b00000000000000000000000111001000 D
b00000000000000000000000111001100 M
b00000000000000000000000111001000 N
1T
b00000000000000000000000111001100 X
#235
0T
#236
b00000000000000000000000111001100 D
b00000000000000000000000111010000 M
b00000000000000000000000111001100 N
1T
b00000000000000000000000111010000 X
#237
0T
#238
b00000000000000000000000111010000 D
b00000000000000000000000111010100 M
b00000000000000000000000111010000 N
1T
b00000000000000000000000111010100 X
#239
0T
#240
b00000000000000000000000111010100 D
b00000000000000000000000111011000 M
b00000000000000000000000111010100 N
1T
b00000000000000000000000111011000 X
#241
0T
#242
b00000000000000000000000111011000 D
b00000000000000000000000111011100 M
b00000000000000000000000111011000 N
1T
b00000000000000000000000111011100 X
#243
0T
#244
b00000000000000000000000111011100 D
b00000000000000000000000111100000 M
b00000000000000000000000111011100 N
1T
b00000000000000000000000111100000 X
#245
0T
#246
b00000000000000000000000111100000 D
b00000000000000000000000111100100 M
b00000000000000000000000111100000 N
1T
b00000000000000000000000111100100 X
#247
0T
#248
b00000000000000000000000111100100 D
b00000000000000000000000111101000 M
b00000000000000000000000111100100 N
1T
b00000000000000000000000111101000 X
#249
0T
#250
b00000000000000000000000111101000 D
b00000000000000000000000111101100 M
b00000000000000000000000111101000 N
1T
b00000000000000000000000111101100 X
#251
0T
#252
b00000000000000000000000111101100 D
b00000000000000000000000111110000 M
b00000000000000000000000111101100 N
1T
b00000000000000000000000111110000 X
#253
0T
#254
b00000000000000000000000111110000 D
b00000000000000000000000111110100 M
b00000000000000000000000111110000 N
1T
b00000000000000000000000111110100 X
#255
0T
#256
b00000000000000000000000111110100 D
b00000000000000000000000111111000 M
b00000000000000000000000111110100 N
1T
b00000000000000000000000111111000 X
#257
0T
#258
b00000000000000000000000111111000 D
b00000000000000000000000111111100 M
b00000000000000000000000111111000 N
1T
b00000000000000000000000111111100 X
#259
0T
#260
b00000000000000000000000111111100 D
b00000000000000000000001000000000 M
b00000000000000000000000111111100 N
1T
b00000000000000000000001000000000 X
#261
0T
#262
b00000000000000000000001000000000 D
b00000000000000000000001000000100 M
b00000000000000000000001000000000 N
1T
b00000000000000000000001000000100 X
#263
0T
#264
b00000000000000000000001000000100 D
b00000000000000000000001000001000 M
b00000000000000000000001000000100 N
1T
b00000000000000000000001000001000 X
#265
0T
#266
b00000000000000000000001000001000 D
b00000000000000000000001000001100 M
b00000000000000000000001000001000 N
1T
b00000000000000000000001000001100 X
#267
0T
#268
b00000000000000000000001000001100 D
b00000000000000000000001000010000 M
b00000000000000000000001000001100 N
1T
b00000000000000000000001000010000 X
#269
0T
#270
b00000000000000000000001000010000 D
b00000000000000000000001000010100 M
b00000000000000000000001000010000 N
1T
b00000000000000000000001000010100 X
#271
0T
#272
b00000000000000000000001000010100 D
b00000000000000000000001000011000 M
b00000000000000000000001000010100 N
1T
b00000000000000000000001000011000 X
#273
0T
#274
b00000000000000000000001000011000 D
b00000000000000000000001000011100 M
b00000000000000000000001000011000 N
1T
b00000000000000000000001000011100 X
#275
0T
#276
b00000000000000000000001000011100 D
b00000000000000000000001000100000 M
b00000000000000000000001000011100 N
1T
b00000000000000000000001000100000 X
#277
0T
#278
b00000000000000000000001000100000 D
b00000000000000000000001000100100 M
b00000000000000000000001000100000 N
1T
b00000000000000000000001000100100 X
#279
0T
#280
b00000000000000000000001000100100 D
b00000000000000000000001000101000 M
b00000000000000000000001000100100 N
1T
b00000000000000000000001000101000 X
#281
0T
#282
b00000000000000000000001000101000 D
b00000000000000000000001000101100 M
b00000000000000000000001000101000 N
1T
b00000000000000000000001000101100 X
#283
0T
#284
b00000000000000000000001000101100 D
b00000000000000000000001000110000 M
b00000000000000000000001000101100 N
1T
b00000000000000000000001000110000 X
#285
0T
#286
b00000000000000000000001000110000 D
b00000000000000000000001000110100 M
b00000000000000000000001000110000 N
1T
b00000000000000000000001000110100 X
#287
0T
#288
b00000000000000000000001000110100 D
b00000000000000000000001000111000 M
b00000000000000000000001000110100 N
1T
b00000000000000000000001000111000 X
#289
0T
#290
b00000000000000000000001000111000 D
b00000000000000000000001000111100 M
b00000000000000000000001000111000 N
1T
b00000000000000000000001000111100 X
#291
0T
#292
b00000000000000000000001000111100 D
b00000000000000000000001001000000 M
b00000000000000000000001000111100 N
1T
b00000000000000000000001001000000 X
#293
0T
#294
b00000000000000000000001001000000 D
b00000000000000000000001001000100 M
b00000000000000000000001001000000 N
1T
b00000000000000000000001001000100 X
#295
0T
#296
b00000000000000000000001001000100 D
b00000000000000000000001001001000 M
b00000000000000000000001001000100 N
1T
b00000000000000000000001001001000 X
#297
0T
#298
b00000000000000000000001001001000 D
b00000000000000000000001001001100 M
b00000000000000000000001001001000 N
1T
b00000000000000000000001001001100 X
#299
0T
#300
b00000000000000000000001001001100 D
b00000000000000000000001001010000 M
b00000000000000000000001001001100 N
1T
b00000000000000000000001001010000 X
#301
0T
#302
b00000000000000000000001001010000 D
b00000000000000000000001001010100 M
b00000000000000000000001001010000 N
1T
b00000000000000000000001001010100 X
#303
0T
#304
b00000000000000000000001001010100 D
b00000000000000000000001001011000 M
b00000000000000000000001001010100 N
1T
b00000000000000000000001001011000 X
#305
0T
#306
b00000000000000000000001001011000 D
b00000000000000000000001001011100 M
b00000000000000000000001001011000 N
1T
b00000000000000000000001001011100 X
#307
0T
#308
b00000000000000000000001001011100 D
b00000000000000000000001001100000 M
b00000000000000000000001001011100 N
1T
b00000000000000000000001001100000 X
#309
0T
#310
b00000000000000000000001001100000 D
b00000000000000000000001001100100 M
b00000000000000000000001001100000 N
1T
b00000000000000000000001001100100 X
#311
0T
#312
b00000000000000000000001001100100 D
b00000000000000000000001001101000 M
b00000000000000000000001001100100 N
1T
b00000000000000000000001001101000 X
#313
0T
#314
b00000000000000000000001001101000 D
b00000000000000000000001001101100 M
b00000000000000000000001001101000 N
1T
b00000000000000000000001001101100 X
#315
0T
#316
b00000000000000000000001001101100 D
b00000000000000000000001001110000 M
b00000000000000000000001001101100 N
1T
b00000000000000000000001001110000 X
#317
0T
#318
b00000000000000000000001001110000 D
b00000000000000000000001001110100 M
b00000000000000000000001001110000 N
1T
b00000000000000000000001001110100 X
#319
0T
#320
b00000000000000000000001001110100 D
b00000000000000000000001001111000 M
b00000000000000000000001001110100 N
1T
b00000000000000000000001001111000 X
#321
0T
#322
b00000000000000000000001001111000 D
b00000000000000000000001001111100 M
b00000000000000000000001001111000 N
1T
b00000000000000000000001001111100 X
#323
0T
#324
b00000000000000000000001001111100 D
b00000000000000000000001010000000 M
b00000000000000000000001001111100 N
1T
b00000000000000000000001010000000 X
#325
0T
#326
b00000000000000000000001010000000 D
b00000000000000000000001010000100 M
b00000000000000000000001010000000 N
1T
b00000000000000000000001010000100 X
#327
0T
